xwMOOC 자연어 처리 - 텍스트
…
2.2 각장(Chapter) → 단어(Word)

앞서 “일반이론”을 각 장별로 나눠서 총 24장으로 구성된 것을 확인하고 제대로 검증하기 위해서 단어 갯수를 불용어 처리해서 세어본다.

kbbok_chap_df %>% 
  select(book, chapter, text) %>% 
  unnest_tokens(word, text) %>%
    anti_join(stop_words) %>% 
    count(word, sort=TRUE)

# A tibble: 6,008 x 2
   word           n
   <chr>      <int>
 1 rate         759
 2 money        724
 3 employment   623
 4 investment   543
 5 capital      510
 6 income       377
 7 marginal     367
 8 wage         338
 9 demand       337
10 cost         322
# ... with 5,998 more rows
…
