트위터 - tidyverse + tidytext
…
2.2 해쉬태그, @, URL 제거

인터넷 정규표현식을 참조하여 해쉬태그, @, URL을 제거한다.

tw_regex_df <- tw_df %>% 
  mutate(text = str_remove_all(text, "\\B(\\#[a-zA-Z]+\\b)(?!;)")) %>%  # 해쉬태그 제거
  mutate(text = str_remove_all(text, "\\B(\\@[a-zA-Z]+\\b)(?!;)")) %>%  # @제거
  mutate(text = str_remove_all(text, "((https?):((//)|(\\\\))+([\\w\\d:#@%/;$()~_?\\+-=\\\\.&](#!)?)*)")) # URL 제거 
tw_regex_df

# A tibble: 16,000 x 6
   target ids     date          flag   user     text                       
   <fct>  <chr>   <chr>         <chr>  <chr>    <chr>                      
 1 부정   220287… Tue Jun 16 2… NO_QU… danielR… My last night on this tour 
 2 부정   205547… Sat Jun 06 0… NO_QU… alraK5   I need a ladder.  This wor…
 3 부정   199095… Mon Jun 01 0… NO_QU… youniqu… I TALKED TO U BUT I DIDNT …
 4 부정   232759… Thu Jun 25 0… NO_QU… jlw072   Way bummed that I don't ge…
 5 부정   220423… Wed Jun 17 0… NO_QU… theital… i miss tuesdays at My Hous…
 6 부정   147023… Tue Apr 07 0… NO_QU… SillySt… Sad day!!!!. Totally thoug…
 7 부정   199093… Mon Jun 01 0… NO_QU… ClareLa… " I couldn't sleep last ni…
 8 부정   188037… Fri May 22 0… NO_QU… tiffymo… " yes i think us lakers fa…
 9 부정   229625… Tue Jun 23 0… NO_QU… oliviaa… Arghh have to sit down the…
10 부정   197141… Sat May 30 0… NO_QU… jfunk414 realized how sad it's goin…
# … with 15,990 more rows
…
tw_tidy_df <- tw_regex_df %>% 
  unnest_tokens(word, text) %>% 
  anti_join(custom_stop_words)

tw_tidy_df %>% 
  count(word, sort=TRUE)

# A tibble: 19,792 x 2
   word         n
   <chr>    <int>
 1 day        858
 2 quot       732
 3 love       645
 4 lol        610
 5 time       535
 6 amp        487
 7 night      467
 8 miss       380
 9 home       366
10 tomorrow   354
# … with 19,782 more rows
…
