단어구름에서 토픽모형
…
Julia Silge 블로그에 내용을 바탕으로 원본 텍스트데이터를 가져와서 이를 tidytext 방식으로 토픽모형(topic model)까지 구축하는 과정을 실습한다.

1.1 텍스트 데이터

gutenbergr 팩키지를 설치하고 나서 셜록홈즈 소설을 다운로드 받는다.

> library(tidyverse)
> library(gutenbergr)
> 
> sherlock_raw <- gutenberg_download(1661)
> 
> sherlock_raw

# A tibble: 12,648 x 2
   gutenberg_id text                             
          <int> <chr>                            
 1         1661 THE ADVENTURES OF SHERLOCK HOLMES
 2         1661 ""                               
 3         1661 by                               
 4         1661 ""                               
 5         1661 SIR ARTHUR CONAN DOYLE           
 6         1661 ""                               
 7         1661 ""                               
 8         1661 ""                               
 9         1661 "   I. A Scandal in Bohemia"     
10         1661 "  II. The Red-headed League"    
# ... with 12,638 more rows
…
스토리를 기준으로 문장단위로 구분을 했으면, 다음 단계로 문장을 단어 단위로 잘라낸다. 이를 위해서 unnest_tokens() 함수를 사용한다. 그리고 불용어 사전에 등록된 stop_words를 사용해서 불용어를 제거하고 homes 단어도 너무 많이 출현되어 이를 제거하여 깔끔한 텍스트 데이터로 정제한다.

> library(tidytext)
> 
> tidy_sherlock <- sherlock %>%
+     mutate(line = row_number()) %>%
+     unnest_tokens(word, text) %>%
+     anti_join(stop_words) %>%
+     filter(word != "holmes")
> 
> tidy_sherlock %>%
+     count(word, sort = TRUE)

# A tibble: 7,437 x 2
   word        n
   <chr>   <int>
 1 time      151
 2 door      144
 3 matter    125
 4 house     123
 5 hand      120
 6 night     114
 7 heard     113
 8 found     108
 9 day       106
10 morning   102
# ... with 7,427 more rows
…
