자연어 처리 - 텍스트
…
데이터가 크다보니 10% 표본만을 대상으로 작업을 속도감있게 진행하고 중요하다고 생각되는 변수만 우선적으로 추출하여 후속작업을 진행한다.

set.seed(777)

complaints_dat <- complaints %>% 
  janitor::clean_names() %>% 
  select(complaint_id, consumer_complaint_narrative, product, company, date_received) %>% 
  sample_frac(0.1) %>% 
  drop_na()

complaints_dat

# A tibble: 56,238 x 5
   complaint_id consumer_complaint_nar~ product         company    date_received
          <dbl> <chr>                   <chr>           <chr>      <date>       
 1      2963530 "I submitted to XXXX X~ Debt collection ENCORE CA~ 2018-07-15   
 2      2798574 "XX/XX/2018 Good Morni~ Credit reporti~ Experian ~ 2018-01-31   
 3      2978622 "In mid XXXX I receive~ Debt collection JH Portfo~ 2018-07-31   
 4      3242435 "I accidentally made a~ Money transfer~ Square In~ 2019-05-14   
 5      1935767 "XXXX XXXX XXXX XXXX X~ Mortgage        Ocwen Fin~ 2016-05-21   
 6      2701621 "Equifax data breach"   Credit reporti~ EQUIFAX, ~ 2017-10-14   
 7      3597225 "The problem is still ~ Mortgage        Ocwen Fin~ 2020-04-08   
 8      2717071 "XXXX XXXX XXXX XXXX X~ Debt collection ENOVA INT~ 2017-10-31   
 9      2955102 "In XX/XX/XXXX, I co-s~ Credit reporti~ Experian ~ 2018-07-09   
10      2589622 "I have paid membershi~ Credit reporti~ TRANSUNIO~ 2017-07-30   
# ... with 56,228 more rows
…
embedding_glove27b()

embedding_glove42b()

embedding_glove840b()

embedding_glove6b() 함수를 사용해서 단어를 100차원으로 축소해서 살펴보자.

library(textdata)

glove6b <- embedding_glove6b(dimensions = 100)

glove6b

# A tibble: 400,000 x 101
   token      d1      d2      d3      d4      d5      d6      d7      d8      d9
   <chr>   <dbl>   <dbl>   <dbl>   <dbl>   <dbl>   <dbl>   <dbl>   <dbl>   <dbl>
 1 "the" -0.0382 -0.245   0.728  -0.400   0.0832  0.0440 -0.391   0.334  -0.575 
 2 ","   -0.108   0.111   0.598  -0.544   0.674   0.107   0.0389  0.355   0.0635
 3 "."   -0.340   0.209   0.463  -0.648  -0.384   0.0380  0.171   0.160   0.466 
 4 "of"  -0.153  -0.243   0.898   0.170   0.535   0.488  -0.588  -0.180  -1.36  
 5 "to"  -0.190   0.0500  0.191  -0.0492 -0.0897  0.210  -0.550   0.0984 -0.201 
 6 "and" -0.0720  0.231   0.0237 -0.506   0.339   0.196  -0.329   0.184  -0.181 
 7 "in"   0.0857 -0.222   0.166   0.134   0.382   0.354   0.0129  0.225  -0.438 
 8 "a"   -0.271   0.0440 -0.0203 -0.174   0.644   0.712   0.355   0.471  -0.296 
 9 "\""  -0.305  -0.236   0.176  -0.729  -0.283  -0.256   0.266   0.0253 -0.0748
10 "'s"   0.589  -0.202   0.735  -0.683  -0.197  -0.180  -0.392   0.342  -0.606 
# ... with 399,990 more rows, and 91 more variables: d10 <dbl>, d11 <dbl>,
#   d12 <dbl>, d13 <dbl>, d14 <dbl>, d15 <dbl>, d16 <dbl>, d17 <dbl>,
#   d18 <dbl>, d19 <dbl>, d20 <dbl>, d21 <dbl>, d22 <dbl>, d23 <dbl>,
#   d24 <dbl>, d25 <dbl>, d26 <dbl>, d27 <dbl>, d28 <dbl>, d29 <dbl>,
#   d30 <dbl>, d31 <dbl>, d32 <dbl>, d33 <dbl>, d34 <dbl>, d35 <dbl>,
#   d36 <dbl>, d37 <dbl>, d38 <dbl>, d39 <dbl>, d40 <dbl>, d41 <dbl>,
#   d42 <dbl>, d43 <dbl>, d44 <dbl>, d45 <dbl>, d46 <dbl>, d47 <dbl>,
#   d48 <dbl>, d49 <dbl>, d50 <dbl>, d51 <dbl>, d52 <dbl>, d53 <dbl>,
#   d54 <dbl>, d55 <dbl>, d56 <dbl>, d57 <dbl>, d58 <dbl>, d59 <dbl>,
…
단어-차원(100) 행렬을 깔끔한 데이터프레임형태로 정리한다.

tidy_glove <- glove6b %>% 
  pivot_longer(contains("d"), 
             names_to = "dimension") %>% 
  rename(item1 = token)

tidy_glove

# A tibble: 40,000,000 x 3
   item1 dimension   value
   <chr> <chr>       <dbl>
 1 the   d1        -0.0382
 2 the   d2        -0.245 
 3 the   d3         0.728 
 4 the   d4        -0.400 
 5 the   d5         0.0832
 6 the   d6         0.0440
 7 the   d7        -0.391 
 8 the   d8         0.334 
 9 the   d9        -0.575 
10 the   d10        0.0875
# ... with 39,999,990 more rows
…
library(widyr)

nearest_neighbors <- function(df, token) {
  df %>%
    widely(~ . %*% (.[token, ]), 
           sort = TRUE, 
           maximum_size = NULL)(item1, dimension, value) %>%
    select(-item2)
}

tidy_glove %>% 
  nearest_neighbors("king")

# A tibble: 400,000 x 2
   item1   value
   <chr>   <dbl>
 1 king     37.4
 2 emperor  28.5
 3 prince   27.7
 4 queen    27.6
 5 son      26.1
 6 ii       25.1
 7 throne   25.1
 8 father   24.6
 9 lord     23.9
10 kingdom  23.9
# ... with 399,990 more rows
…
