xwMOOC 자연어 처리 - 텍스트
…
hy_video_comment_list <- read_rds("data/hy_video_comment_list.rds")

hy_channel_stat_df <- hy_channel_stat_tbl %>% 
  unnest(stat)

hy_channel_stat_comment_df <- hy_channel_stat_df %>% 
  mutate(comment = hy_video_comment_list)

hy_channel_stat_comment_df %>% 
  select(channel_name, title, viewCount, comment)

# A tibble: 353 x 4
   channel_name title                           viewCount comment          
   <chr>        <chr>                           <chr>     <list>           
 1 TV홍카콜라   [홍준표의 뉴스콕] 너 이름이 뭐니?~ 114999    <data.frame [440~
 2 TV홍카콜라   [홍준표의 뉴스콕] 文정부, 사라지는 일자리~ 178818    <data.frame [1,9~
 3 TV홍카콜라   [홍준표의 뉴스콕] 누가 뭐라 해도 남북경협 박차~ 74626     <data.frame [771~
 4 TV홍카콜라   [홍준표의 뉴스콕] 효자산업 반도체의 고난~ 54249     <data.frame [522~
 5 TV홍카콜라   [홍준표] 홍준표의 재구성 - 남정욱교수~ 17246     <data.frame [292~
 6 TV홍카콜라   [홍준표의 뉴스콕] 목이 메여 불러보는..~ 105534    <data.frame [683~
 7 TV홍카콜라   [홍준표] 당랑의꿈               49529     <data.frame [778~
 8 TV홍카콜라   [TV홍카콜라 LIVE On-Air] 이벤트 라이브 -~ 86880     <data.frame [689~
 9 TV홍카콜라   [홍준표의 뉴스콕] 중국의 우리하늘 우리어장 침범~ 82345     <data.frame [789~
10 TV홍카콜라   [공식예고] 내 나라 살리는 길, 함께 갑시다 - 홍준~ 215559    <data.frame [2,5~
# ... with 343 more rows
…
hy_rect_basetable <- hy_rect_basetable %>% 
  mutate(y = ifelse(channel_name == "TV홍카콜라", 0L, 1L) %>% factor(., levels=c(0, 1), labels = c("홍카콜라", "알릴레오") )) %>% 
    mutate_at(vars(contains("Count")), as.integer) %>% 
    mutate(date = ymd_hms(date)) %>% 
    mutate(month = month(date) %>% as.factor,
           week = weekdays(date) %>%  as.factor) %>% 
    select(y, contains("Count"), month, week) %>% 
    mutate(month = case_when(month == 1 ~ "1월",
                             month ==12 ~ "12월",
                             TRUE ~ "기타")) %>% 
    mutate(commentCount = ifelse(is.na(commentCount), 0, commentCount))
  
hy_rect_basetable

# A tibble: 165 x 8
   y     viewCount likeCount dislikeCount favoriteCount commentCount month
   <fct>     <int>     <int>        <int>         <int>        <dbl> <chr>
 1 홍카콜라~    114999     10659          392             1          460 12월 
 2 홍카콜라~    178818     23870          528             1         2146 1월  
 3 홍카콜라~     74626     11163          108             1          851 1월  
 4 홍카콜라~     54249      8236           71             1          596 1월  
 5 홍카콜라~     17246      2681           20             1          318 1월  
 6 홍카콜라~    105534     10641          525             1          720 12월 
 7 홍카콜라~     49529      5328           88             1          901 1월  
 8 홍카콜라~     86880      8564          519             1          671 12월 
 9 홍카콜라~     82345     11731          127             1          834 1월  
10 홍카콜라~    215559     13272         2095             1         2896 12월 
# ... with 155 more rows, and 1 more variable: week <fct>
…
hy_bow_tidy_df <- hy_bow_df %>% 
  mutate(bow = map(bow, str_split, pattern=" ") ) %>% 
  select(channel_name, title, bow) %>% 
  unnest(bow) %>% 
  unnest(bow)

hy_bow_tidy_df %>% 
  count(channel_name, bow, sort=TRUE) %>% 
  filter(bow != "",
         channel_name == "TV홍카콜라") 

# A tibble: 274 x 3
   channel_name bow        n
   <chr>        <chr>  <int>
 1 TV홍카콜라   홍준표    63
 2 TV홍카콜라   뉴스      53
 3 TV홍카콜라   콕        52
 4 TV홍카콜라   tv        13
 5 TV홍카콜라   대담       9
 6 TV홍카콜라   쇼         9
 7 TV홍카콜라   편         9
 8 TV홍카콜라   live       8
 9 TV홍카콜라   시사       8
10 TV홍카콜라   air        7
# ... with 264 more rows
…
